<?xml version="1.0" encoding="UTF-8"?>
<svg width="804px" height="615px" viewBox="0 0 804 615" version="1.1" xmlns="http://www.w3.org/2000/svg" xmlns:xlink="http://www.w3.org/1999/xlink">
    <!-- Generator: Sketch 51.3 (57544) - http://www.bohemiancoding.com/sketch -->
    <title>desktop</title>
    <desc>Created with Sketch.</desc>
    <defs>
        <path d="M53.7261547,0.761018362 L218.590833,0.761018362 L236.703042,84.3964039 L264.690924,86.5320427 C265.506282,86.5942593 266.201637,87.1465707 266.446773,87.9266909 L268.969426,95.9547658 L0.149555438,95.9547658 L4.37559352,87.6292466 C4.68930202,87.0112242 5.3006174,86.5996741 5.9912591,86.5415473 L31.4790656,84.3964039 L53.7261547,0.761018362 Z" id="path-1"></path>
    </defs>
    <g id="Final(ish)" stroke="none" stroke-width="1" fill="none" fill-rule="evenodd">
        <g id="Artboard-2-Copy-2" transform="translate(-198.000000, -113.000000)">
            <g id="Hero" transform="translate(0.000000, 66.000000)">
                <g id="desktop" transform="translate(198.000000, 47.000000)">
                    <g id="stand" transform="translate(266.000000, 519.000000)">
                        <mask id="mask-2" fill="white">
                            <use xlink:href="#path-1"></use>
                        </mask>
                        <use id="Rectangle-11" fill="#E9E9E9" xlink:href="#path-1"></use>
                        <rect id="Rectangle-12" fill="#D8D8D8" mask="url(#mask-2)" x="45.7827207" y="-11.3836066" width="183.248475" height="27.7734491"></rect>
                    </g>
                    <g id="monitor">
                        <rect id="top-bar" fill="#DDE1E6" fill-rule="nonzero" x="13.9765625" y="13" width="778" height="25.4650952"></rect>
                        <path d="M15,15 L15,505 L789,505 L789,15 L15,15 Z M6,0 L798,8.8817842e-16 C801.313708,-6.15269919e-14 804,2.6862915 804,6 L804,514 C804,517.313708 801.313708,520 798,520 L6,520 C2.6862915,520 4.05812251e-16,517.313708 0,514 L0,6 C-4.05812251e-16,2.6862915 2.6862915,1.4968968e-15 6,0 Z" id="outside-border" fill="#353535" fill-rule="nonzero"></path>
                        <g id="image" transform="translate(13.063690, 13.060508)">
                            <g id="circle-buttons" transform="translate(9.382481, 9.939492)">
                                <ellipse id="Oval" fill="#2AD144" cx="25.6058925" cy="3.7244291" rx="3.56537744" ry="3.7244291"></ellipse>
                                <ellipse id="Oval" fill="#FF615A" cx="3.56537744" cy="3.7244291" rx="3.56537744" ry="3.7244291"></ellipse>
                                <ellipse id="Oval" fill="#FFBF30" cx="14.585635" cy="3.7244291" rx="3.56537744" ry="3.7244291"></ellipse>
                            </g>
                        </g>
                        <ellipse id="Oval-2" fill="#D8D8D8" cx="401.977185" cy="6.80907368" rx="3.17128255" ry="3.15995087"></ellipse>
                    </g>
                </g>
            </g>
        </g>
    </g>
</svg>