<?xml version="1.0" encoding="UTF-8"?>
<svg width="367px" height="171px" viewBox="0 0 367 171" version="1.1" xmlns="http://www.w3.org/2000/svg" xmlns:xlink="http://www.w3.org/1999/xlink">
    <!-- Generator: Sketch 51.3 (57544) - http://www.bohemiancoding.com/sketch -->
    <title>prev-project-bg</title>
    <desc>Created with Sketch.</desc>
    <defs>
        <rect id="path-1" x="0" y="0" width="394" height="171"></rect>
        <linearGradient x1="93.8025845%" y1="34.1944205%" x2="-5.50978903%" y2="55.6875405%" id="linearGradient-3">
            <stop stop-color="#E2770C" offset="0%"></stop>
            <stop stop-color="#ED1A7B" offset="100%"></stop>
        </linearGradient>
        <linearGradient x1="98.9168277%" y1="43.7511701%" x2="4.52243713%" y2="43.7511701%" id="linearGradient-4">
            <stop stop-color="#E2770C" offset="0%"></stop>
            <stop stop-color="#ED1A7B" offset="100%"></stop>
        </linearGradient>
        <linearGradient x1="100%" y1="44.0656331%" x2="0%" y2="39.213946%" id="linearGradient-5">
            <stop stop-color="#E2770C" offset="0%"></stop>
            <stop stop-color="#ED1A7B" offset="100%"></stop>
        </linearGradient>
        <linearGradient x1="100%" y1="48.1145585%" x2="5.37784033%" y2="40.0318753%" id="linearGradient-6">
            <stop stop-color="#E2770C" offset="0%"></stop>
            <stop stop-color="#ED1A7B" offset="100%"></stop>
        </linearGradient>
        <linearGradient x1="98.6155028%" y1="51.8782148%" x2="13.8172658%" y2="51.8782148%" id="linearGradient-7">
            <stop stop-color="#E2770C" offset="0%"></stop>
            <stop stop-color="#ED1A7B" offset="100%"></stop>
        </linearGradient>
    </defs>
    <g id="Final(ish)" stroke="none" stroke-width="1" fill="none" fill-rule="evenodd">
        <g id="Artboard-2-Copy-2" transform="translate(0.000000, -4940.000000)">
            <g id="prev-project-bg" transform="translate(0.000000, 4940.000000)">
                <mask id="mask-2" fill="white">
                    <use xlink:href="#path-1"></use>
                </mask>
                <use id="mask" fill-opacity="0" fill="#FFFFFF" fill-rule="nonzero" xlink:href="#path-1"></use>
                <g id="TBL" mask="url(#mask-2)">
                    <g transform="translate(219.080146, 318.330374) scale(-1, 1) rotate(-59.000000) translate(-219.080146, -318.330374) translate(-215.419854, -106.669626)" id="Image_looper">
                        <g transform="translate(434.352234, 424.806293) rotate(-15.000000) translate(-434.352234, -424.806293) translate(76.852234, 80.806293)">
                            <g id="Image_5" opacity="0.23239554" transform="translate(359.500000, 344.000000) rotate(40.000000) translate(-359.500000, -344.000000) translate(64.000000, 144.000000)">
                                <rect id="gradient" fill="url(#linearGradient-3)" x="0" y="0" width="524.345865" height="336.666667"></rect>
                                <rect id="Rectangle-7" fill="#FFF4ED" fill-rule="nonzero" x="66.6541353" y="63.3333333" width="524.345865" height="336.666667"></rect>
                            </g>
                            <g id="Image_4" opacity="0.300081105" transform="translate(356.500000, 348.000000) rotate(30.000000) translate(-356.500000, -348.000000) translate(61.000000, 148.000000)">
                                <rect id="gradient" fill="url(#linearGradient-4)" x="0" y="0" width="524.345865" height="336.666667"></rect>
                                <rect id="Rectangle-7" fill="#FFF4ED" fill-rule="nonzero" x="66.6541353" y="63.3333333" width="524.345865" height="336.666667"></rect>
                            </g>
                            <g id="Image_3" opacity="0.790303833" transform="translate(354.500000, 352.000000) rotate(20.000000) translate(-354.500000, -352.000000) translate(59.000000, 152.000000)">
                                <rect id="gradient" fill="url(#linearGradient-5)" x="0" y="0" width="524.345865" height="336.666667"></rect>
                                <rect id="Rectangle-7" fill="#FFF4ED" fill-rule="nonzero" x="66.6541353" y="63.3333333" width="524.345865" height="336.666667"></rect>
                            </g>
                            <g id="Image_2" opacity="0.620329823" transform="translate(353.500000, 357.000000) rotate(10.000000) translate(-353.500000, -357.000000) translate(58.000000, 157.000000)">
                                <rect id="gradient" fill="url(#linearGradient-6)" x="0" y="0" width="524.345865" height="336.666667"></rect>
                                <rect id="Rectangle-7" fill="#ECFFFA" fill-rule="nonzero" x="66.6541353" y="63.3333333" width="524.345865" height="336.666667"></rect>
                            </g>
                            <g id="Image_1" opacity="0.180272117" transform="translate(58.000000, 162.000000)">
                                <rect id="gradient" fill="url(#linearGradient-7)" x="0" y="0" width="524.345865" height="336.666667"></rect>
                                <rect id="Rectangle-7" fill="#65E5C6" fill-rule="nonzero" x="66.6541353" y="63.3333333" width="524.345865" height="336.666667"></rect>
                            </g>
                        </g>
                    </g>
                </g>
            </g>
        </g>
    </g>
</svg>