<?xml version="1.0" encoding="UTF-8"?>
<svg width="341px" height="698px" viewBox="0 0 341 698" version="1.1" xmlns="http://www.w3.org/2000/svg" xmlns:xlink="http://www.w3.org/1999/xlink">
    <!-- Generator: Sketch 51.3 (57544) - http://www.bohemiancoding.com/sketch -->
    <title>mobile wrapper</title>
    <desc>Created with Sketch.</desc>
    <defs>
        <rect id="path-1" x="0" y="0" width="15" height="15"></rect>
        <linearGradient x1="26.6873625%" y1="0.875268625%" x2="68.1394337%" y2="98.7133999%" id="linearGradient-3">
            <stop stop-color="#080808" offset="0%"></stop>
            <stop stop-color="#353535" offset="100%"></stop>
        </linearGradient>
    </defs>
    <g id="Final-Final" stroke="none" stroke-width="1" fill="none" fill-rule="evenodd">
        <g id="Work-Single---Kotlikoff" transform="translate(-683.000000, -905.000000)">
            <g id="Right" transform="translate(683.000000, 905.000000)">
                <g id="mobile-wrapper">
                    <path d="M34.7832031,7 C38.2943451,5.96357194 49.3423106,4.66909746 55.4707031,3.83789063 C80.7268436,0.412346897 162.785001,1.45991798 301.645176,6.98060386 L301.645176,6.98060541 C301.977031,6.99379904 302.306747,7.04002416 302.629436,7.11859585 C315.470451,10.2452542 324.434467,17.1315035 329.521484,27.7773437 C334.673828,38.5598958 337.25,55.1484375 337.25,77.5429687 L4.48242187,77.5429687 C3.89778646,36.6497396 13.9980469,13.1354167 34.7832031,7 Z" id="white-bg-top" fill="#FFFFFF" fill-rule="nonzero"></path>
                    <g id="mobile-heading" transform="translate(27.000000, 10.000000)">
                        <rect id="top-bar" fill="#DDE1E6" fill-rule="nonzero" x="0" y="36" width="287" height="17" rx="2"></rect>
                        <g id="black" transform="translate(234.000000, 0.000000)">
                            <g id="power_black" transform="translate(32.000000, 14.000000)" fill="#000000">
                                <path d="M2.125,0.615384615 C1.28671065,0.615384615 0.607142857,1.30417731 0.607142857,2.15384615 L0.607142857,5.84615385 C0.607142857,6.69582269 1.28671065,7.38461538 2.125,7.38461538 L13.0535714,7.38461538 C13.8918608,7.38461538 14.5714286,6.69582269 14.5714286,5.84615385 L14.5714286,2.15384615 C14.5714286,1.30417731 13.8918608,0.615384615 13.0535714,0.615384615 L2.125,0.615384615 Z M2.125,0 L13.0535714,0 C14.2271765,-2.18514289e-16 15.1785714,0.96430977 15.1785714,2.15384615 L15.1785714,5.84615385 C15.1785714,7.03569023 14.2271765,8 13.0535714,8 L2.125,8 C0.951394907,8 1.43725172e-16,7.03569023 0,5.84615385 L0,2.15384615 C3.95526011e-16,0.96430977 0.951394907,2.18514289e-16 2.125,0 Z" id="Rectangle-3" fill-rule="nonzero"></path>
                                <rect id="Rectangle-3" x="2.21428571" y="2.2" width="10.75" height="3.7" rx="1"></rect>
                                <path d="M16.0892857,2.80800538 C16.6130154,2.94463393 17,3.42651094 17,4 C17,4.57348906 16.6130154,5.05536607 16.0892857,5.19199462 L16.0892857,2.80800538 Z" id="Combined-Shape"></path>
                            </g>
                            <g id="wifi_black" transform="translate(22.500000, 11.500000) rotate(-45.000000) translate(-22.500000, -11.500000) translate(15.000000, 4.000000)">
                                <mask id="mask-2" fill="white">
                                    <use xlink:href="#path-1"></use>
                                </mask>
                                <g id="Mask"></g>
                                <g id="Group" mask="url(#mask-2)" fill="#000000">
                                    <g transform="translate(-8.297872, 6.702128)" id="Oval-3">
                                        <circle fill-rule="evenodd" cx="8.29787234" cy="8.29787234" r="2.87234043"></circle>
                                        <path d="M8.29787234,14.6808511 C11.8230941,14.6808511 14.6808511,11.8230941 14.6808511,8.29787234 C14.6808511,4.77265053 11.8230941,1.91489362 8.29787234,1.91489362 C4.77265053,1.91489362 1.91489362,4.77265053 1.91489362,8.29787234 C1.91489362,11.8230941 4.77265053,14.6808511 8.29787234,14.6808511 Z M8.29787234,16.5957447 C3.71508399,16.5957447 0,12.8806607 0,8.29787234 C0,3.71508399 3.71508399,0 8.29787234,0 C12.8806607,0 16.5957447,3.71508399 16.5957447,8.29787234 C16.5957447,12.8806607 12.8806607,16.5957447 8.29787234,16.5957447 Z" fill-rule="nonzero"></path>
                                        <path d="M8.29787234,12.1276596 C10.4130054,12.1276596 12.1276596,10.4130054 12.1276596,8.29787234 C12.1276596,6.18273926 10.4130054,4.46808511 8.29787234,4.46808511 C6.18273926,4.46808511 4.46808511,6.18273926 4.46808511,8.29787234 C4.46808511,10.4130054 6.18273926,12.1276596 8.29787234,12.1276596 Z M8.29787234,13.7234043 C5.3014338,13.7234043 2.87234043,11.2943109 2.87234043,8.29787234 C2.87234043,5.3014338 5.3014338,2.87234043 8.29787234,2.87234043 C11.2943109,2.87234043 13.7234043,5.3014338 13.7234043,8.29787234 C13.7234043,11.2943109 11.2943109,13.7234043 8.29787234,13.7234043 Z" fill-rule="nonzero"></path>
                                    </g>
                                </g>
                            </g>
                            <g id="singal_black" transform="translate(0.000000, 14.000000)" fill="#000000">
                                <path d="M0.634146341,4.8 L1.90243902,4.8 C2.25266838,4.8 2.53658537,5.08653776 2.53658537,5.44 L2.53658537,7.36 C2.53658537,7.71346224 2.25266838,8 1.90243902,8 L0.634146341,8 C0.283916988,8 4.28907257e-17,7.71346224 0,7.36 L0,5.44 C-4.28907257e-17,5.08653776 0.283916988,4.8 0.634146341,4.8 Z M4.12195122,3.2 L5.3902439,3.2 C5.74047326,3.2 6.02439024,3.48653776 6.02439024,3.84 L6.02439024,7.36 C6.02439024,7.71346224 5.74047326,8 5.3902439,8 L4.12195122,8 C3.77172187,8 3.48780488,7.71346224 3.48780488,7.36 L3.48780488,3.84 C3.48780488,3.48653776 3.77172187,3.2 4.12195122,3.2 Z" id="Combined-Shape"></path>
                                <path d="M7.6097561,1.6 L8.87804878,1.6 C9.22827813,1.6 9.51219512,1.88653776 9.51219512,2.24 L9.51219512,7.36 C9.51219512,7.71346224 9.22827813,8 8.87804878,8 L7.6097561,8 C7.25952674,8 6.97560976,7.71346224 6.97560976,7.36 L6.97560976,2.24 C6.97560976,1.88653776 7.25952674,1.6 7.6097561,1.6 Z" id="singal_3" opacity="0.277232143"></path>
                                <path d="M11.097561,0 L12.3658537,0 C12.716083,-6.49299601e-17 13,0.28653776 13,0.64 L13,7.36 C13,7.71346224 12.716083,8 12.3658537,8 L11.097561,8 C10.7473316,8 10.4634146,7.71346224 10.4634146,7.36 L10.4634146,0.64 C10.4634146,0.28653776 10.7473316,6.49299601e-17 11.097561,0 Z" id="singal_4" opacity="0.277232143"></path>
                            </g>
                        </g>
                        <g id="Time_black" transform="translate(19.000000, 9.000000)" fill="#000000" fill-opacity="0.87">
                            <path d="M3.504,4.264 C4.548,4.264 5.352,4.636 5.904,5.392 C6.456,6.136 6.732,7.156 6.732,8.476 C6.732,9.868 6.432,11.008 5.856,11.872 C5.268,12.736 4.476,13.168 3.492,13.168 C1.8,13.168 0.852,12.388 0.648,10.828 L2.016,10.828 C2.184,11.62 2.676,12.016 3.504,12.016 C4.068,12.016 4.524,11.728 4.872,11.176 C5.196,10.648 5.364,9.988 5.364,9.196 L5.364,9.088 L5.304,9.088 C5.052,9.436 4.752,9.7 4.404,9.868 C4.068,10.024 3.684,10.108 3.252,10.108 C2.412,10.108 1.728,9.832 1.224,9.28 C0.72,8.752 0.48,8.068 0.48,7.228 C0.48,6.364 0.768,5.656 1.344,5.104 C1.92,4.54 2.64,4.264 3.504,4.264 Z M3.552,5.428 C3.048,5.428 2.64,5.596 2.328,5.932 C2.016,6.268 1.872,6.7 1.872,7.228 C1.872,7.756 2.016,8.176 2.328,8.488 C2.616,8.8 3.024,8.968 3.552,8.968 C4.068,8.968 4.476,8.8 4.776,8.488 C5.064,8.164 5.22,7.732 5.22,7.18 C5.22,6.628 5.064,6.208 4.752,5.896 C4.44,5.584 4.032,5.428 3.552,5.428 Z M8.844,6.748 C9.108,6.748 9.324,6.832 9.516,7.024 C9.696,7.204 9.792,7.432 9.792,7.696 C9.792,7.96 9.696,8.176 9.516,8.368 C9.324,8.536 9.108,8.632 8.844,8.632 C8.58,8.632 8.352,8.536 8.184,8.368 C7.992,8.176 7.908,7.96 7.908,7.696 C7.908,7.432 7.992,7.204 8.184,7.024 C8.352,6.832 8.58,6.748 8.844,6.748 Z M8.844,11.14 C9.108,11.14 9.324,11.224 9.516,11.416 C9.696,11.596 9.792,11.824 9.792,12.088 C9.792,12.352 9.696,12.568 9.516,12.76 C9.324,12.928 9.108,13.024 8.844,13.024 C8.58,13.024 8.352,12.928 8.184,12.76 C7.992,12.568 7.908,12.352 7.908,12.088 C7.908,11.824 7.992,11.596 8.184,11.416 C8.352,11.224 8.58,11.14 8.844,11.14 Z M14.916,4.432 L16.2,4.432 L16.2,10.048 L17.472,10.048 L17.472,11.164 L16.2,11.164 L16.2,13 L14.868,13 L14.868,11.164 L10.728,11.164 L10.728,9.832 L14.916,4.432 Z M14.832,6.208 L11.868,10.048 L14.868,10.048 L14.868,6.208 L14.832,6.208 Z M20.484,4.432 L21.54,4.432 L21.54,13 L20.136,13 L20.136,6.124 C19.62,6.592 18.972,6.94 18.18,7.168 L18.18,5.776 C18.564,5.68 18.972,5.512 19.404,5.272 C19.836,5.008 20.196,4.732 20.484,4.432 Z" id="9:41"></path>
                        </g>
                    </g>
                    <path d="M52,10 C28.8040405,10 10,28.8040405 10,52 L10,646 C10,669.195959 28.8040405,688 52,688 L289,688 C312.195959,688 331,669.195959 331,646 L331,52 C331,28.8040405 312.195959,10 289,10 L52,10 Z M52,0 L289,0 C317.718807,-5.27555926e-15 341,23.281193 341,52 L341,646 C341,674.718807 317.718807,698 289,698 L52,698 C23.281193,698 -3.58838785e-15,674.718807 -7.10542736e-15,646 L0,52 C-3.51703951e-15,23.281193 23.281193,5.27555926e-15 52,0 Z" id="border" fill="url(#linearGradient-3)" fill-rule="nonzero"></path>
                    <g id="header" transform="translate(75.000000, 7.000000)" fill-rule="nonzero">
                        <path d="M1.14941406,1.23193359 C-11.4018555,0.547363281 201.505859,0.547363281 191.591797,1.23193359 C181.677734,1.91650391 180.848112,4.90665474 180.587402,6.29980469 C178.36252,18.188868 174.870145,24.2579169 169.912853,24.2579169 C164.374669,24.2579169 141.635346,24.2579169 101.694886,24.2579169 C60.6480024,24.2579169 35.957775,24.2579169 27.6242038,24.2579169 C19.7532543,24.2579169 15.2200195,19.5366718 13.5200195,6.29980469 C13.4201006,5.52179665 13.7006836,1.91650391 1.14941406,1.23193359 Z" id="Rectangle-4" fill="#000000"></path>
                        <rect id="Rectangle-7" fill="#D8D8D8" opacity="0.290569196" x="75" y="9" width="45" height="4" rx="1"></rect>
                        <circle id="Oval-4" fill="#5B84FC" opacity="0.534877232" cx="126" cy="11" r="2"></circle>
                    </g>
                </g>
            </g>
        </g>
    </g>
</svg>