<?xml version="1.0" encoding="UTF-8"?>
<svg width="61px" height="52px" viewBox="0 0 61 52" version="1.1" xmlns="http://www.w3.org/2000/svg" xmlns:xlink="http://www.w3.org/1999/xlink">
    <!-- Generator: Sketch 51.3 (57544) - http://www.bohemiancoding.com/sketch -->
    <title>“</title>
    <desc>Created with Sketch.</desc>
    <defs></defs>
    <g id="Final-Final" stroke="none" stroke-width="1" fill="none" fill-rule="evenodd">
        <g id="Work-Single---Kotlikoff" transform="translate(-168.000000, -1655.000000)" fill="#FFFFFF">
            <g id="Content-Left-Large" transform="translate(168.000000, 938.000000)">
                <path d="M28.9323308,724.428571 C25.2831898,727.035101 22.2205638,730.293214 19.7443609,734.203008 C17.268158,738.112802 15.8997507,741.892212 15.6390977,745.541353 L25.8045113,753.360902 C25.5438583,756.619064 24.3057755,759.68169 22.0902256,762.548872 C19.8746756,765.416054 17.1378609,767.566409 13.8796992,769 C4.62652015,765.220532 0,759.09528 0,750.62406 C0,744.36839 2.05261105,738.210557 6.15789474,732.150376 C10.2631784,726.090195 15.9648758,721.04012 23.2631579,717 L28.9323308,724.428571 Z M60.9924812,724.428571 C57.3433402,727.035101 54.2807141,730.293214 51.8045113,734.203008 C49.3283084,738.112802 47.9599011,741.892212 47.6992481,745.541353 L57.8646617,753.360902 C57.6040087,756.619064 56.3659259,759.68169 54.1503759,762.548872 C51.934826,765.416054 49.1980113,767.566409 45.9398496,769 C36.6866705,765.220532 32.0601504,759.09528 32.0601504,750.62406 C32.0601504,744.36839 34.1127614,738.210557 38.2180451,732.150376 C42.3233288,726.090195 48.0250262,721.04012 55.3233083,717 L60.9924812,724.428571 Z" id="“"></path>
            </g>
        </g>
    </g>
</svg>